simulation/traffic_light_fsm_tb.vcd
$date
	Sun Jun  7 11:55:15 2026
$end
$version
	ModelSim Version 2024.3
$end
$timescale
	1fs
$end

$scope module traffic_light_fsm_tb $end
$var reg 1 ! clk $end
$var reg 1 " rst_n $end
$var wire 1 # red $end
$var wire 1 $ green $end
$var wire 1 % yellow $end
$var integer 32 & i $end

$scope task check_outputs $end
$var reg 1 ' exp_red $end
$var reg 1 ( exp_green $end
$var reg 1 ) exp_yellow $end
$upscope $end

$scope module DUT $end
$var parameter 2 * RED_S $end
$var parameter 2 + GREEN_S $end
$var parameter 2 , YELLOW_S $end
$var parameter 4 - RED_COUNT $end
$var parameter 4 . GREEN_COUNT $end
$var parameter 4 / YELLOW_COUNT $end
$var wire 1 0 clk $end
$var wire 1 1 rst_n $end
$var reg 1 2 red $end
$var reg 1 3 green $end
$var reg 1 4 yellow $end
$var reg 2 5 state [1:0] $end
$var reg 2 6 next_state [1:0] $end
$var reg 4 7 count [3:0] $end
$upscope $end
$upscope $end
$enddefinitions $end
#0
$dumpvars
0!
0"
12
03
04
b0 5
b1 6
b0 7
x'
x(
x)
b0 *
b1 +
b10 ,
b1010 -
b1000 .
b100 /
bx &
1#
0$
0%
00
01
$end
#5000000
1!
10
#10000000
0!
00
#15000000
1!
10
#16000000
1"
b0 &
1'
0(
0)
11
#20000000
0!
00
#25000000
1!
10
b1 5
b111 7
b10 6
02
13
0#
1$
#26000000
b1 &
#30000000
0!
00
#35000000
1!
10
b110 7
#36000000
b10 &
#40000000
0!
00
#45000000
1!
10
b101 7
#46000000
b11 &
#50000000
0!
00
#55000000
1!
10
b100 7
#56000000
b100 &
#60000000
0!
00
#65000000
1!
10
b11 7
#66000000
b101 &
#70000000
0!
00
#75000000
1!
10
b10 7
#76000000
b110 &
#80000000
0!
00
#85000000
1!
10
b1 7
#86000000
b111 &
#90000000
0!
00
#95000000
1!
10
b0 7
#96000000
b1000 &
#100000000
0!
00
#105000000
1!
10
b10 5
b11 7
b0 6
03
14
0$
1%
#106000000
b1001 &
b0 &
0'
1(
#110000000
0!
00
#115000000
1!
10
b10 7
#116000000
b1 &
#120000000
0!
00
#125000000
1!
10
b1 7
#126000000
b10 &
#130000000
0!
00
#135000000
1!
10
b0 7
#136000000
b11 &
#140000000
0!
00
#145000000
1!
10
b0 5
b1001 7
b1 6
04
12
0%
1#
#146000000
b100 &
#150000000
0!
00
#155000000
1!
10
b1000 7
#156000000
b101 &
#160000000
0!
00
#165000000
1!
10
b111 7
#166000000
b110 &
#170000000
0!
00
#175000000
1!
10
b110 7
#176000000
b111 &
b0 &
0(
1)
#180000000
0!
00
#185000000
1!
10
b101 7
#186000000
b1 &
#190000000
0!
00
#195000000
1!
10
b100 7
#196000000
b10 &
#200000000
0!
00
#205000000
1!
10
b11 7
#206000000
b11 &
b0 &
1'
0)
#210000000
0!
00
#215000000
1!
10
b10 7
#216000000
b1 &
#220000000
0!
00
#225000000
1!
10
b1 7
#226000000
b10 &
#230000000
0!
00
#235000000
1!
10
b0 7
#236000000
b11 &
#240000000
0!
00
#245000000
1!
10
b1 5
b111 7
b10 6
02
13
0#
1$
#246000000
b100 &
#250000000
0!
00
#255000000
1!
10
b110 7
#256000000
b101 &
#260000000
0!
00
#265000000
1!
10
b101 7
#266000000
b110 &
#270000000
0!
00
#275000000
1!
10
b100 7
#276000000
b111 &
#280000000
0!
00
#285000000
1!
10
b11 7
#286000000
b1000 &
#290000000
0!
00
#295000000
1!
10
b10 7
#296000000
b1001 &
